{
  "extends": "tslint:recommended",
  "rules": {
    "member-ordering": false,
    "object-literal-sort-keys": false,
    "ordered-imports": false,
    "quotemark": [true, "single"],
  "no-trailing-whitespace":false
  },
  "linterOptions": {
    "exclude": [
      "./node_modules/**"
    ]
  }
}
