{
    "openapi":"3.0.2",
    "info": {
        "title":"Campus",
        "version":"1.0",
        "description": "Campus Backend API"
    },
    "servers": [
        {
            "url":"https://api.campus.com/v1",
            "description": "Application Server"
        }
    ],
    
    "paths": {
        
    },

}